lab1/lab1_design1/simulation/qsim/example_schematic.msim.vcd
$comment
	File created using the following command:
		vcd file example_schematic.msim.vcd -direction
$end
$date
	Tue Jan 23 14:34:03 2024
$end
$version
	ModelSim Version 2020.1
$end
$timescale
	1ps
$end

$scope module example_schematic_vlg_vec_tst $end
$var reg 1 ! x1 $end
$var reg 1 " x2 $end
$var reg 1 # x3 $end
$var wire 1 $ f $end

$scope module i1 $end
$var wire 1 % gnd $end
$var wire 1 & vcc $end
$var wire 1 ' unknown $end
$var tri1 1 ( devclrn $end
$var tri1 1 ) devpor $end
$var tri1 1 * devoe $end
$var wire 1 + ~QUARTUS_CREATED_GND~I_combout $end
$var wire 1 , x1~input_o $end
$var wire 1 - x3~input_o $end
$var wire 1 . x2~input_o $end
$var wire 1 / inst3~0_combout $end
$upscope $end
$upscope $end
$enddefinitions $end
#0
$dumpvars
0!
0"
0#
0$
0%
1&
x'
1(
1)
1*
0+
0,
0-
0.
0/
$end
#20000
1#
1-
1/
1$
#30000
1!
1,
#60000
0!
0,
#70000
0#
0-
0/
0$
#80000
1"
1.
#90000
1#
1-
#120000
0"
0.
1/
1$
#140000
0#
0-
0/
0$
